Análisis Discriminante
…
Proportion of trace:
   LD1    LD2 
0.9919 0.0081 

Código

predictions <- predict(lda_fit, df_test)
predictions

# A tibble: 24 x 1
   .pred_class
   <fct>      
 1 setosa     
 2 setosa     
 3 setosa     
 4 setosa     
 5 setosa     
 6 setosa     
 7 setosa     
 8 setosa     
 9 versicolor 
10 versicolor 
# ... with 14 more rows
…
