Regularización
…
# modelo ridge 
ridge_model <- glmnet(
  as.matrix(train[, !names(train) %in% "new_value"]),  # predictoras
  train$new_value,  # variable respuesta
  standardize = T, #estandariza las variables
  alpha = 0  # Ridge
)

Código

ridge_tidy <- broom::tidy(ridge_model)

ridge_tidy

# A tibble: 3,200 × 5
   term         step estimate      lambda dev.ratio
   <chr>       <dbl>    <dbl>       <dbl>     <dbl>
 1 (Intercept)     1 2704678. 4182932583.  4.62e-36
 2 (Intercept)     2 2043681. 3811332381.  9.59e- 3
 3 (Intercept)     3 1980636. 3472744117.  1.05e- 2
 4 (Intercept)     4 1911720. 3164235101.  1.15e- 2
 5 (Intercept)     5 1836418. 2883133175.  1.25e- 2
 6 (Intercept)     6 1754173. 2627003570.  1.37e- 2
 7 (Intercept)     7 1664383. 2393627814.  1.50e- 2
 8 (Intercept)     8 1566407. 2180984516.  1.64e- 2
 9 (Intercept)     9 1459554. 1987231862.  1.78e- 2
10 (Intercept)    10 1343089. 1810691661.  1.95e- 2
# ℹ 3,190 more rows
…
Call:  glmnet(x = as.matrix(train[, !names(train) %in% "new_value"]),      y = train$new_value, alpha = 0, lambda = ridge_lambda_opt,      standardize = TRUE) 

  Df  %Dev Lambda
1 31 30.26 418300

Código

# Tidy
ridge_opt %>% tidy() %>% mutate(estimate = round(estimate, 4))

# A tibble: 32 × 5
   term          step   estimate  lambda dev.ratio
   <chr>        <dbl>      <dbl>   <dbl>     <dbl>
 1 (Intercept)      1 -41837208. 418293.     0.303
 2 height           1     51311. 418293.     0.303
 3 weight           1     -1728. 418293.     0.303
 4 age              1   -222401. 418293.     0.303
 5 ball_control     1     51273. 418293.     0.303
 6 dribbling        1    -16994. 418293.     0.303
 7 slide_tackle     1      1011. 418293.     0.303
 8 stand_tackle     1     19708. 418293.     0.303
 9 aggression       1     18411. 418293.     0.303
10 reactions        1    316049. 418293.     0.303
# ℹ 22 more rows
…
Call:  glmnet(x = as.matrix(train[, !names(train) %in% "new_value"]),      y = train$new_value, alpha = 1, lambda = lasso_lambda_opt,      standardize = TRUE) 

  Df  %Dev Lambda
1  7 28.43 418300

Código

# Tidy
ridge_opt %>% tidy() %>% mutate(estimate = round(estimate, 4))

# A tibble: 32 × 5
   term          step   estimate  lambda dev.ratio
   <chr>        <dbl>      <dbl>   <dbl>     <dbl>
 1 (Intercept)      1 -41837208. 418293.     0.303
 2 height           1     51311. 418293.     0.303
 3 weight           1     -1728. 418293.     0.303
 4 age              1   -222401. 418293.     0.303
 5 ball_control     1     51273. 418293.     0.303
 6 dribbling        1    -16994. 418293.     0.303
 7 slide_tackle     1      1011. 418293.     0.303
 8 stand_tackle     1     19708. 418293.     0.303
 9 aggression       1     18411. 418293.     0.303
10 reactions        1    316049. 418293.     0.303
# ℹ 22 more rows
…
